{
	"folders": {},
	"connections": {
		"mysql8-18e5d030f16-5d238140c7573e9e": {
			"provider": "mysql",
			"driver": "mysql8",
			"name": "MySQL Docker",
			"save-password": true,
			"configuration": {
				"host": "localhost",
				"port": "3307",
				"url": "jdbc:mysql://localhost:3307/",
				"configurationType": "MANUAL",
				"type": "dev",
				"properties": {
					"connectTimeout": "20000",
					"rewriteBatchedStatements": "true",
					"enabledTLSProtocols": "TLSv1,TLSv1.1,TLSv1.2,TLSv1.3",
					"allowPublicKeyRetrieval": "TRUE"
				},
				"auth-model": "native"
			}
		}
	},
	"connection-types": {
		"dev": {
			"name": "Development",
			"color": "255,255,255",
			"description": "Regular development database",
			"auto-commit": true,
			"confirm-execute": false,
			"confirm-data-change": false,
			"smart-commit": false,
			"smart-commit-recover": false,
			"auto-close-transactions": true,
			"close-transactions-period": 1800
		}
	}
}